…
```r
data_base_psqi$psqi_total <- apply(select(data_base_psqi, num_range(prefix = "psqi", range = 1:7)), 1, sum)
```

### Overview of component scores from PSQI


```r
select(data_base_psqi, num_range("psqi", 1:7) )
```

```
## # A tibble: 38 x 7
##    psqi1 psqi2 psqi3 psqi4 psqi5 psqi6 psqi7
##    <dbl> <int> <int> <int> <int> <dbl> <int>
##  1     1     0     1     0     1     0     1
##  2     0     0     2     3     0     0     2
##  3     2     1     2     0     1     0     2
##  4     0     2     2     1     1     0     1
##  5     0    NA     2     2     0     0     3
##  6     1     0     1     0     0     0     2
##  7     1    NA    NA    NA     1     1     3
##  8     0    NA     2     3     1     0     2
##  9     0     0     1     1     0     0     2
## 10     3     1     3     3     1     0     1
## # ... with 28 more rows
```
…
